%YAML 1.1
%TAG !u! tag:unity3d.com,2011:
--- !u!114 &11400000
MonoBehaviour:
  m_ObjectHideFlags: 0
  m_CorrespondingSourceObject: {fileID: 0}
  m_PrefabInstance: {fileID: 0}
  m_PrefabAsset: {fileID: 0}
  m_GameObject: {fileID: 0}
  m_Enabled: 1
  m_EditorHideFlags: 0
  m_Script: {fileID: 11500000, guid: 32bba1160355bf641aa07f9338fbc889, type: 3}
  m_Name: Water
  m_EditorClassIdentifier: 
  ItemName: 
  Icon: {fileID: 21300000, guid: 93d3452659012a047b58c4f574bafa2f, type: 3}
  StrengthBonus: 5
  AgilityBonus: 0
  IntelligenceBonus: 4
  VitalityBonus: 0
  StrengthPercentBonus: 0
  AgilityPercentBonus: 0
  IntelligencePercentBonus: 0
  VitalityPercentBonus: 0
  IngredientType: 1
